…
#> $ distribution         <chr> "non-commercial", "non-commercial", "non-...
#> $ organism             <chr> "Saccharomyces cerevisiae", "Saccharomyce...
#> $ manufacturer         <chr> NA, NA, NA, NA, NA, NA, NA, NA, NA, NA, N...
#> $ manufacture_protocol <chr> NA, NA, NA, NA, NA, NA, NA, NA, NA, NA, N...
#> $ coating              <chr> NA, NA, NA, NA, NA, NA, NA, NA, NA, NA, N...
#> $ catalog_number       <chr> NA, NA, NA, NA, NA, NA, NA, NA, NA, NA, N...
#> $ support              <chr> NA, NA, NA, NA, NA, NA, NA, NA, NA, NA, N...
#> $ description          <chr> "Tip Configuration: Standard 32-tip;\tCol...
#> $ web_link             <chr> NA, NA, NA, NA, NA, NA, NA, NA, NA, NA, N...
#> $ contact              <chr> "Name:  Stanford Microarray Database;\tEm...
#> $ data_row_count       <dbl> 16128, 7680, 9216, 9216, 8832, 9216, 8448...
#> $ supplementary_file   <chr> NA, NA, NA, NA, NA, NA, NA, NA, NA, NA, N...
#> $ bioc_package         <chr> NA, NA, NA, NA, NA, NA, NA, NA, NA, NA, N...
geo_links
#> # A tibble: 2,606 × 2
#>     geo_gpl  geo_gse
#>       <chr>    <chr>
#> 1   GPL1001  GSE1688
#> 2  GPL10039 GSE44871
#> 3  GPL10039 GSE60140
#> 4  GPL10039 GSE70202
#> 5  GPL10039 GSE20420
#> 6  GPL10039 GSE27925
#> 7  GPL10039 GSE32623
#> 8  GPL10039 GSE33904
#> 9  GPL10045 GSE51613
#> 10 GPL10045 GSE57476
#> # ... with 2,596 more rows
```

pkg API:
--------

-   `find_in_*(x)` finds the observations of table that match pattern `x` in a least 1 variable. A few built in helper functions to query against each cel of each table (all lower case!):

``` r
x <- c("top[1|2|3|o]")
find_in_gsm(x)
#> Warning: attributes are not identical across measure variables; they will
#> be dropped
#> [[1]]
#> # A tibble: 141 × 32
#>           gsm     ID                                  title
#>         <chr>  <dbl>                                  <chr>
#> 1  GSM1106865 991666                  [hs1990] top1-del-1-a
#> 2  GSM1106866 991667                  [hs1990] top1-del-1-b
#> 3  GSM1107847 992648                  [hs1991] top3-del-1-b
#> 4  GSM1107848 992649                  [hs1991] top3-del-2-a
#> 5   GSM205924 185138  Top1 distribution in HU(SUP fraction)
#> 6   GSM205925 185139 Top1 distribution in HU(ChIP fraction)
#> 7   GSM205926 185140          Top2 distribution in HU (SUP)
#> 8   GSM205927 185141 Top2 distribution in HU(ChIP fraction)
#> 9  GSM1018217 920608                      Pol 2 WT 0' Rep 1
#> 10 GSM1018218 920609                      Pol 2 WT 0' Rep 2
#> # ... with 131 more rows, and 29 more variables: series_id <chr>,
#> #   gpl <chr>, status <chr>, submission_date <date>,
#> #   last_update_date <date>, type <chr>, source_name_ch1 <chr>,
#> #   organism_ch1 <chr>, characteristics_ch1 <chr>, molecule_ch1 <chr>,
#> #   label_ch1 <chr>, treatment_protocol_ch1 <chr>,
#> #   extract_protocol_ch1 <chr>, label_protocol_ch1 <chr>,
#> #   source_name_ch2 <chr>, organism_ch2 <chr>, characteristics_ch2 <chr>,
#> #   molecule_ch2 <chr>, label_ch2 <chr>, treatment_protocol_ch2 <chr>,
#> #   extract_protocol_ch2 <chr>, label_protocol_ch2 <chr>,
#> #   hyb_protocol <chr>, description <chr>, data_processing <chr>,
#> #   contact <chr>, supplementary_file <chr>, data_row_count <dbl>,
#> #   channel_count <dbl>
find_in_gse(x)
#> Warning: attributes are not identical across measure variables; they will
#> be dropped
#> [[1]]
#> # A tibble: 35 × 18
#>         gse    ID
#>       <chr> <dbl>
#> 1  GSE38496 33896
#> 2  GSE25909 23147
#> 3   GSE8305  7246
#> 4  GSE68016 58739
#> 5  GSE52701 43122
#> 6  GSE55948 47568
#> 7  GSE62927 54867
#> 8  GSE22809 20349
#> 9  GSE37005 32712
#> 10 GSE61243 50781
#> # ... with 25 more rows, and 16 more variables: title <chr>, status <chr>,
#> #   submission_date <date>, last_update_date <date>, pubmed_id <int>,
#> #   summary <chr>, type <chr>, contributor <chr>, web_link <chr>,
#> #   overall_design <chr>, repeats <chr>, repeats_sample_list <chr>,
#> #   variable <chr>, variable_description <chr>, contact <chr>,
#> #   supplementary_file <chr>
x <- c("affy", "nimblegen")
find_in_gpl(x)
#> Warning: attributes are not identical across measure variables; they will
#> be dropped
#> [[1]]
#> # A tibble: 33 × 20
#>       ID                                              title     gpl
#>    <dbl>                                              <chr>   <chr>
#> 1     65         [YG_S98] Affymetrix Yeast Genome S98 Array   GPL90
#> 2    125 [Ye6100SubA] Affymetrix Yeast Genome 6K SubA Array  GPL163
#> 3    126 [Ye6100SubB] Affymetrix Yeast Genome 6K SubB Array  GPL164
#> 4    127 [Ye6100SubC] Affymetrix Yeast Genome 6K SubC Array  GPL165
#> 5    128 [Ye6100SubD] Affymetrix Yeast Genome 6K SubD Array  GPL166
#> 6    245                                          rikDacFC6  GPL347
#> 7    808                                     SC3456a520015F GPL1280
#> 8   1480        [Yeast_2] Affymetrix Yeast Genome 2.0 Array GPL2529
#> 9   1491                                         DNA_Tags_3 GPL2544
#> 10  1542                                    ISB Yeast Array GPL2622
#> # ... with 23 more rows, and 17 more variables: status <chr>,
#> #   submission_date <date>, last_update_date <date>, technology <chr>,
#> #   distribution <chr>, organism <chr>, manufacturer <chr>,
#> #   manufacture_protocol <chr>, coating <chr>, catalog_number <chr>,
#> #   support <chr>, description <chr>, web_link <chr>, contact <chr>,
#> #   data_row_count <dbl>, supplementary_file <chr>, bioc_package <chr>
#> 
#> [[2]]
#> # A tibble: 36 × 20
#>       ID
#>    <dbl>
#> 1   1493
#> 2   2230
#> 3   2921
#> 4   3046
#> 5   3086
#> 6   4000
#> 7   4205
#> 8   4468
#> 9   5421
#> 10  5454
#> # ... with 26 more rows, and 19 more variables: title <chr>, gpl <chr>,
#> #   status <chr>, submission_date <date>, last_update_date <date>,
#> #   technology <chr>, distribution <chr>, organism <chr>,
#> #   manufacturer <chr>, manufacture_protocol <chr>, coating <chr>,
#> #   catalog_number <chr>, support <chr>, description <chr>,
#> #   web_link <chr>, contact <chr>, data_row_count <dbl>,
#> #   supplementary_file <chr>, bioc_package <chr>
…
